<!-- Generated by IcoMoon.io -->
<svg version="1.1" xmlns="http://www.w3.org/2000/svg" width="32" height="32" viewBox="0 0 32 32">
<title>car-off</title>
<path d="M22.215 24.797l0.22-0.067 2.759-0.169v1.511c0 0.563 0.515 1.001 1.223 1.001h2.447c0.693 0 1.231-0.43 1.262-0.934 0-1.887 0.001-4.582 0.001-4.576l-0.005-0.209 0.129-0.159c0.18-0.222 0.271-0.535 0.271-0.983 0.001-0.043 0.001-0.043 0.003-0.146 0.002-0.132 0.005-0.274 0.007-0.421 0.006-0.458 0.010-0.899 0.010-1.307 0-1.318-0.034-2.008-0.090-2.155-0.107-0.283-0.546-0.576-1.412-0.883-0.315-0.112-0.663-0.215-1.031-0.309-0.118-0.030-0.233-0.057-0.34-0.081-0.068-0.015-0.096-0.020-0.105-0.025l-23.185-0.002c-0.043 0.009-0.043 0.009-0.128 0.028-0.107 0.024-0.222 0.051-0.34 0.081-0.369 0.093-0.717 0.197-1.031 0.309-0.866 0.307-1.305 0.601-1.412 0.883-0.053 0.14-0.087 0.77-0.090 1.98-0.001 0.453 0.002 0.954 0.010 1.482 0.002 0.147 0.004 0.289 0.007 0.421 0.002 0.103 0.002 0.103 0.003 0.158 0 0.438 0.092 0.755 0.278 0.993l0.117 0.15v0.195l-0.001 4.517c0.033 0.56 0.567 0.993 1.263 0.993h2.447c0.707 0 1.223-0.438 1.223-1.001v-1.511l2.759 0.169 0.22 0.067 0.249 0.147h12.016l0.249-0.147zM3.368 14.014l-0.054-0.045c-0.098 0.005-0.196-0.004-0.294-0.030-0.072-0.014-0.198-0.038-0.36-0.070-0.27-0.053-0.54-0.107-0.792-0.16-0.070-0.014-0.070-0.014-0.14-0.029-0.768-0.161-1.028-0.222-1.13-0.295-0.303-0.193-0.523-0.508-0.579-0.861-0.124-0.658 0.351-1.307 0.968-1.373l1.525-0.206c0.252-0.044 0.464 0.079 0.788 0.347 0.046 0.038 0.094 0.079 0.144 0.124 0.102 0.090 0.373 0.343 0.377 0.346 0.011 0.008 0.339 0.456 0.364 0.484l2.426-3.247c0.622-0.832 1.57-1.318 2.573-1.318h13.444c0.957 0 1.866 0.442 2.49 1.211l2.708 3.34c0.071-0.092 0.338-0.457 0.349-0.464 0.004-0.003 0.276-0.256 0.377-0.346 0.050-0.044 0.098-0.085 0.144-0.124 0.324-0.267 0.536-0.391 0.788-0.347l1.525 0.206c0.617 0.065 1.093 0.715 0.968 1.373-0.055 0.352-0.275 0.668-0.579 0.861-0.102 0.073-0.361 0.134-1.13 0.295-0.070 0.015-0.070 0.015-0.14 0.029-0.252 0.052-0.522 0.106-0.792 0.16-0.162 0.032-0.288 0.056-0.36 0.070-0.065 0.017-0.131 0.027-0.197 0.030l-0.089 0.081c0.234 0.067 0.459 0.139 0.671 0.214 1.133 0.402 1.785 0.837 2.039 1.51 0.13 0.343 0.164 1.024 0.164 2.559 0 0.413-0.003 0.859-0.010 1.323-0.002 0.149-0.004 0.292-0.007 0.426-0.002 0.104-0.002 0.104-0.003 0.14 0 0.59-0.126 1.096-0.395 1.506 0 0.378-0 1.45-0.002 4.441-0.069 1.166-1.093 1.986-2.288 1.986h-2.447c-1.232 0-2.25-0.867-2.25-2.088v-0.359l-1.555 0.095-0.38 0.223h-12.548l-0.38-0.223-1.555-0.095v0.359c0 1.221-1.019 2.088-2.25 2.088h-2.447c-1.2 0-2.22-0.826-2.29-2.046v-4.371c-0.268-0.417-0.394-0.919-0.395-1.5-0.001-0.052-0.001-0.055-0.003-0.156-0.002-0.134-0.005-0.277-0.007-0.426-0.008-0.534-0.011-1.042-0.010-1.501 0.004-1.418 0.038-2.048 0.163-2.381 0.254-0.672 0.906-1.108 2.039-1.51 0.257-0.091 0.531-0.177 0.818-0.256zM4.694 13.805l22.68-0.003-3.25-4.007c-0.374-0.461-0.919-0.726-1.494-0.726h-13.444c-0.602 0-1.171 0.291-1.544 0.791l-2.949 3.946z"></path>
<path d="M8.803 20.705l-0.020 0.001c0.001 0 0.004 0 0.007 0 0.007 0 0.013 0.001 0.020 0.001l-0.007-0.003zM9.067 20.667c0.14-0.053 0.199-0.135 0.207-0.301 0.035-0.73-0.486-1.65-1.056-1.858-0.2-0.073-0.666-0.176-1.375-0.304-0.237-0.043-0.498-0.088-0.783-0.134-0.492-0.081-1.035-0.165-1.609-0.25-0.185-0.027-0.363-0.053-0.53-0.077-0.043-0.006-0.072-0.010-0.094-0.013-0.044 0.034-0.091 0.074-0.136 0.118-0.102 0.099-0.152 0.177-0.164 0.23-0.010 0.044-0.007 0.051 0.055 0.091 0.169 0.113 1.040 0.548 2.514 1.252l0.095 0.045c0.564 0.269 1.186 0.564 1.844 0.873 0.212 0.099 0.416 0.195 0.608 0.285 0.112 0.052 0.14 0.065 0.181 0.085 0.084 0.001 0.168-0.012 0.244-0.041zM8.81 20.708l0.063 0.023c-0.020-0.010-0.036-0.017-0.050-0.023-0.005-0-0.009-0-0.014-0zM8.565 21.725l-0.070-0.026c-0.082-0.038-0.082-0.038-0.231-0.108-0.192-0.090-0.397-0.186-0.609-0.286-0.659-0.31-1.284-0.605-1.849-0.875l-0.095-0.045c-1.552-0.741-2.404-1.166-2.628-1.316-0.416-0.273-0.603-0.747-0.489-1.245 0.065-0.286 0.223-0.531 0.457-0.759 0.123-0.12 0.255-0.224 0.373-0.299l0.196-0.125 0.225 0.031c0.072 0.010 0.072 0.010 0.204 0.029 0.169 0.024 0.349 0.050 0.535 0.078 0.579 0.085 1.126 0.171 1.623 0.252 0.289 0.048 0.554 0.093 0.796 0.137 0.761 0.137 1.257 0.247 1.523 0.344 1 0.364 1.771 1.726 1.714 2.913-0.031 0.601-0.351 1.048-0.854 1.238-0.209 0.079-0.429 0.108-0.647 0.096-0.015-0.001-0.015-0.001-0.028-0.002-0.009-0.001-0.009-0.001-0.087-0.015l-0.055-0.015z"></path>
<path d="M22.089 20.721l-0.018 0.011c0.012-0.005 0.023-0.009 0.033-0.013-0.005 0.001-0.010 0.002-0.015 0.002zM22.34 20.624c0.223-0.090 0.461-0.186 0.708-0.285 0.766-0.309 1.491-0.604 2.147-0.873l0.11-0.045c1.714-0.703 2.73-1.138 2.925-1.25 0.085-0.047 0.088-0.052 0.088-0.056-0.006-0.047-0.064-0.132-0.205-0.253-0.052-0.044-0.11-0.088-0.171-0.13-0.025 0.003-0.057 0.007-0.104 0.013-0.195 0.024-0.403 0.050-0.617 0.077-0.668 0.085-1.3 0.169-1.873 0.25-0.331 0.047-0.636 0.092-0.912 0.134-0.826 0.128-1.368 0.231-1.601 0.304-0.664 0.207-1.271 1.127-1.23 1.855 0.010 0.168 0.079 0.25 0.241 0.303 0.089 0.029 0.188 0.042 0.283 0.041 0.048-0.019 0.081-0.032 0.211-0.085zM28.808 19.072c-0.254 0.147-1.248 0.572-3.054 1.313l-0.11 0.045c-0.659 0.27-1.385 0.565-2.153 0.875-0.247 0.1-0.485 0.196-0.709 0.286-0.174 0.070-0.174 0.070-0.352 0.134l-0.151 0.029c-0.030 0.002-0.030 0.002-0.052 0.003-0.249 0.012-0.505-0.017-0.748-0.096-0.586-0.19-0.959-0.637-0.995-1.24-0.067-1.184 0.832-2.546 1.996-2.91 0.309-0.096 0.887-0.207 1.773-0.344 0.281-0.043 0.591-0.089 0.927-0.137 0.579-0.082 1.216-0.167 1.89-0.252 0.216-0.027 0.426-0.054 0.622-0.078 0.153-0.019 0.153-0.019 0.237-0.029l0.272-0.032 0.233 0.135c0.040 0.023 0.090 0.054 0.144 0.090 0.103 0.069 0.2 0.142 0.291 0.219 0.324 0.277 0.523 0.568 0.564 0.911 0.054 0.446-0.189 0.836-0.624 1.076z"></path>
</svg>
