<?xml version="1.0" encoding="UTF-8"?>
<svg width="24px" height="24px" viewBox="0 0 24 24" version="1.1" xmlns="http://www.w3.org/2000/svg" xmlns:xlink="http://www.w3.org/1999/xlink" style="background: #FFFFFF;">
    <!-- Generator: Sketch 48.2 (47327) - http://www.bohemiancoding.com/sketch -->
    <title>Icons/clock</title>
    <desc>Created with Sketch.</desc>
    <defs></defs>
    <g id="icone-per-dev" stroke="none" stroke-width="1" fill="none" fill-rule="evenodd">
        <g id="Icons/clock" fill="#000000" fill-rule="nonzero">
            <path d="M16.9761898,11.2380949 C16.9761898,9.92424299 16.5174674,8.81678904 15.5884341,7.88775576 C14.6593994,6.95872207 13.551946,6.49999988 12.2380948,6.49999994 C10.924243,6.49999988 9.81678901,6.95872222 8.88775558,7.88775554 C7.95872222,8.81678901 7.49999988,9.92424296 7.49999994,11.2380949 C7.49999988,12.551946 7.95872207,13.6593994 8.88775555,14.5884339 C9.81678904,15.5174674 10.924243,15.9761898 12.2380949,15.9761898 C13.551946,15.9761898 14.6593993,15.5174675 15.5884337,14.5884341 C16.5174675,13.6593993 16.9761898,12.551946 16.9761898,11.2380949 Z M17.9761898,11.2380949 C17.9761898,12.8171624 17.4121107,14.1789695 16.2955405,15.2955409 C15.1789695,16.4121107 13.8171624,16.9761898 12.2380949,16.9761898 C10.6590265,16.9761898 9.29721865,16.4121105 8.18064858,15.2955405 C7.06407882,14.1789695 6.49999987,12.8171624 6.49999994,11.2380949 C6.49999987,9.65902652 7.06407903,8.29721867 8.1806488,7.18064876 C9.29721867,6.06407903 10.6590265,5.49999987 12.2380948,5.49999994 C13.8171624,5.49999987 15.1789695,6.06407882 16.2955407,7.18064878 C17.4121105,8.29721865 17.9761898,9.65902651 17.9761898,11.2380949 Z M12.7380949,11.0309881 L12.7380949,8.09523791 C12.7380949,7.81909553 12.5142372,7.59523791 12.2380949,7.59523791 C11.9619525,7.59523791 11.7380949,7.81909553 11.7380949,8.09523791 L11.7380949,11.2380949 C11.7380949,11.3707031 11.7907733,11.4978801 11.8845415,11.5916483 L13.4559699,13.1630767 C13.6512321,13.3583389 13.9678146,13.3583389 14.1630767,13.1630767 C14.3583389,12.9678146 14.3583389,12.6512321 14.1630767,12.4559699 L12.7380949,11.0309881 Z" id="Combined-Shape"></path>
        </g>
    </g>
</svg>