<?xml version="1.0" encoding="UTF-8"?>
<svg width="24px" height="24px" viewBox="0 0 24 24" version="1.1" xmlns="http://www.w3.org/2000/svg" xmlns:xlink="http://www.w3.org/1999/xlink" style="background: #FFFFFF;">
    <!-- Generator: Sketch 48.2 (47327) - http://www.bohemiancoding.com/sketch -->
    <title>Icons/drag and drop</title>
    <desc>Created with Sketch.</desc>
    <defs></defs>
    <g id="icone-per-dev" stroke="none" stroke-width="1" fill="none" fill-rule="evenodd">
        <g id="Icons/drag-and-drop" fill="#000000">
            <g id="Group" transform="translate(2.500000, 0.500000)">
                <path d="M13.652172,15.0525554 L14.2131563,14.55 L17.5,17.7487223 L17.5,18.2512777 L14.2131563,21.45 L13.6784063,20.9474446 L16.2730937,18.3554136 L0.25,18.3554136 L0.25,17.6445864 L16.2730937,17.6445864 L13.652172,15.0525554 Z M3.84782802,6.44744465 L3.28684371,6.95 L-2.66453526e-15,3.75127768 L-2.66453526e-15,3.24872232 L3.28684371,0.05 L3.82159368,0.552555352 L1.22690626,3.14458639 L17.25,3.14458639 L17.25,3.85541357 L1.22690626,3.85541357 L3.84782802,6.44744465 Z" id="Combined-Shape"></path>
            </g>
        </g>
    </g>
</svg>