<?xml version="1.0" encoding="UTF-8"?>
<svg width="24px" height="24px" viewBox="0 0 24 24" version="1.1" xmlns="http://www.w3.org/2000/svg" xmlns:xlink="http://www.w3.org/1999/xlink">
    <!-- Generator: Sketch 48.2 (47327) - http://www.bohemiancoding.com/sketch -->
    <title>Geolocalization</title>
    <desc>Created with Sketch.</desc>
    <defs></defs>
    <g id="icone-per-dev" stroke="none" stroke-width="1" fill="none" fill-rule="evenodd">
        <g id="Geolocalization" fill="#000000">
            <g id="Group-2">
                <path d="M12,23.5 C5.64872538,23.5 0.5,18.3512746 0.5,12 C0.5,5.64872538 5.64872538,0.5 12,0.5 C18.3512746,0.5 23.5,5.64872538 23.5,12 C23.5,18.3512746 18.3512746,23.5 12,23.5 Z M12,22.5 C17.7989899,22.5 22.5,17.7989899 22.5,12 C22.5,6.20101013 17.7989899,1.5 12,1.5 C6.20101013,1.5 1.5,6.20101013 1.5,12 C1.5,17.7989899 6.20101013,22.5 12,22.5 Z" id="Oval-2" fill-rule="nonzero"></path>
                <g id="Page-1" transform="translate(8.920000, 8.040000)">
                    <polygon id="Fill-2" points="3.08 0 0 7.62404248 0.291573346 7.92 3.08 6.66947368 5.86842704 7.92 6.16 7.62404248"></polygon>
                </g>
            </g>
        </g>
    </g>
</svg>