<!-- Generated by IcoMoon.io -->
<svg version="1.1" xmlns="http://www.w3.org/2000/svg" width="32" height="32" viewBox="0 0 32 32">
<title>inspection</title>
<path d="M12.409 24.219l11.836-11.824c2.057 0.472 4.316-0.067 5.901-1.684 1.652-1.651 2.192-3.941 1.652-6.030-0.101-0.337-0.54-0.438-0.776-0.202l-2.529 2.526c-0.91 0.909-2.327 1.044-3.338 0.303-1.214-0.943-1.315-2.695-0.236-3.739l2.596-2.594c0.27-0.269 0.135-0.707-0.202-0.775-2.091-0.539-4.417 0-6.036 1.651-1.585 1.583-2.158 3.84-1.686 5.895l-11.836 11.824c-2.057-0.472-4.316 0.067-5.901 1.684-1.652 1.651-2.192 3.941-1.652 6.063 0.101 0.337 0.54 0.438 0.776 0.202l2.529-2.526c0.91-0.91 2.327-1.044 3.338-0.303 1.214 0.943 1.315 2.695 0.236 3.739l-2.596 2.594c-0.27 0.269-0.135 0.707 0.202 0.775 2.091 0.539 4.417 0 6.070-1.651 1.585-1.617 2.158-3.874 1.652-5.929z"></path>
</svg>
