<?xml version="1.0" encoding="UTF-8"?>
<svg width="24px" height="24px" viewBox="0 0 24 24" version="1.1" xmlns="http://www.w3.org/2000/svg" xmlns:xlink="http://www.w3.org/1999/xlink">
    <!-- Generator: Sketch 48.2 (47327) - http://www.bohemiancoding.com/sketch -->
    <title>Icons/success icon</title>
    <desc>Created with Sketch.</desc>
    <defs></defs>
    <g id="icone-per-dev" stroke="none" stroke-width="1" fill="none" fill-rule="evenodd">
        <g id="Icons/success-icon" fill="#000000" fill-rule="nonzero">
            <path d="M8.25000003,16.247398 L5.81380105,13.811199 C5.39886897,13.3962669 4.72613114,13.3962669 4.31119906,13.811199 C3.89626698,14.2261311 3.89626698,14.8988689 4.31119906,15.313801 L7.49869904,18.501301 C7.91363112,18.916233 8.58636894,18.916233 9.00130103,18.501301 L20.6888009,6.81380105 C21.103733,6.39886897 21.103733,5.72613114 20.6888009,5.31119906 C20.2738689,4.89626698 19.601131,4.89626698 19.1861989,5.31119906 L8.25000003,16.247398 Z" id="Stroke-2"></path>
        </g>
    </g>
</svg>