[
  {
    "id": 1,
    "title": "Company S.p.A.",
    "address": "Via Andreotti 30, Roma, ITALY",
    "mail": "m.rossi@gmail.com",
    "phones": [
      "023456434",
      "023456456"
    ],
    "consultant": {
      "name": "Mario Rossi",
      "phones": ["3332345334"],
      "mail": "m.rossi@gmail.com"
    }
  },
  {
    "id": 2,
    "title": "Different S.p.A. Cagliari",
    "address": "Via Roma 50, Cagliari, ITALY",
    "mail": "m.rossi@gmail.com",
    "phones": [
      "065362331",
      "065342316"
    ],
    "website": "http://roma.example.com"
  },
  {
    "id": 3,
    "title": "Other S.p.A. Napoli",
    "address": "Via Italia 20, Napoli, ITALY",
    "mail": "m.magnoni@smocar.it",
    "phones": [
      "065362311",
      "065362316"
    ],
    "website": "http://roma.ferraridealers.com"
  },
  {
    "id": 4,
    "title": "Some Dealer Car S.p.A. Milano",
    "address": "Via Smerillo 20, Milano, ITALY",
    "mail": "m.magnoni@smocar.it",
    "phones": [
      "065362311",
      "065362316"
    ],
    "website": "http://roma.ferraridealers.com"
  },
  {
    "id": 5,
    "title": "Officina S.p.A. Roma",
    "address": "Via Smerillo 20, Roma, ITALY",
    "mail": "m.magnoni@smocar.it",
    "phones": [
      "065362311",
      "065362316"
    ],
    "website": "http://roma.ferraridealers.com"
  },
  {
    "id": 6,
    "title": "Fast Cars S.p.A. Roma",
    "address": "Via Smerillo 20, Roma, ITALY",
    "mail": "m.magnoni@smocar.it",
    "phones": [
      "065362311",
      "065362316"
    ],
    "website": "http://roma.ferraridealers.com"
  }
]
